17/06/2019 00:15:17 : The multi-part identifier "t3.PymntGroup" could not be bound.
Invalid column name 'U_ISS_BpBrnCode'.
Invalid column name 'U_ISS_BpBrnName'.   at System.Data.SqlClient.SqlConnection.OnError(SqlException exception, Boolean breakConnection, Action`1 wrapCloseInAction)
   at System.Data.SqlClient.SqlInternalConnection.OnError(SqlException exception, Boolean breakConnection, Action`1 wrapCloseInAction)
   at System.Data.SqlClient.TdsParser.ThrowExceptionAndWarning(TdsParserStateObject stateObj, Boolean callerHasConnectionLock, Boolean asyncClose)
   at System.Data.SqlClient.TdsParser.TryRun(RunBehavior runBehavior, SqlCommand cmdHandler, SqlDataReader dataStream, BulkCopySimpleResultSet bulkCopyHandler, TdsParserStateObject stateObj, Boolean& dataReady)
   at System.Data.SqlClient.SqlDataReader.TryConsumeMetaData()
   at System.Data.SqlClient.SqlDataReader.get_MetaData()
   at System.Data.SqlClient.SqlCommand.FinishExecuteReader(SqlDataReader ds, RunBehavior runBehavior, String resetOptionsString, Boolean isInternal, Boolean forDescribeParameterEncryption, Boolean shouldCacheForAlwaysEncrypted)
   at System.Data.SqlClient.SqlCommand.RunExecuteReaderTds(CommandBehavior cmdBehavior, RunBehavior runBehavior, Boolean returnStream, Boolean async, Int32 timeout, Task& task, Boolean asyncWrite, Boolean inRetry, SqlDataReader ds, Boolean describeParameterEncryptionRequest)
   at System.Data.SqlClient.SqlCommand.RunExecuteReader(CommandBehavior cmdBehavior, RunBehavior runBehavior, Boolean returnStream, String method, TaskCompletionSource`1 completion, Int32 timeout, Task& task, Boolean& usedCache, Boolean asyncWrite, Boolean inRetry)
   at System.Data.SqlClient.SqlCommand.RunExecuteReader(CommandBehavior cmdBehavior, RunBehavior runBehavior, Boolean returnStream, String method)
   at System.Data.SqlClient.SqlCommand.ExecuteReader(CommandBehavior behavior, String method)
   at System.Data.SqlClient.SqlCommand.ExecuteDbDataReader(CommandBehavior behavior)
   at System.Data.Common.DbCommand.System.Data.IDbCommand.ExecuteReader(CommandBehavior behavior)
   at System.Data.Common.DbDataAdapter.FillInternal(DataSet dataset, DataTable[] datatables, Int32 startRecord, Int32 maxRecords, String srcTable, IDbCommand command, CommandBehavior behavior)
   at System.Data.Common.DbDataAdapter.Fill(DataTable[] dataTables, Int32 startRecord, Int32 maxRecords, IDbCommand command, CommandBehavior behavior)
   at System.Data.Common.DbDataAdapter.Fill(DataTable dataTable)
   at B1Utility.DataAccess.DBDataAccess.executeQuery(String sql) in d:\B1WorkSpace\Tools\b1.utility\B1Utility\DataAccess\DBDataAccess.cs:line 125
17/06/2019 00:15:17 : The multi-part identifier "t3.PymntGroup" could not be bound.
Invalid column name 'U_ISS_BpBrnCode'.
Invalid column name 'U_ISS_BpBrnName'.   at B1Utility.Utils.ExceptionUtils.handleException(Exception ex) in d:\B1WorkSpace\Tools\b1.utility\B1Utility\Utils\ExceptionUtils.cs:line 22
   at B1Utility.DataAccess.DBDataAccess.executeQuery(String sql) in d:\B1WorkSpace\Tools\b1.utility\B1Utility\DataAccess\DBDataAccess.cs:line 133
   at B1Utility.Utils.DBUtils.queryResultList[T](String sql, Boolean isRecordSet) in d:\B1WorkSpace\Tools\b1.utility\B1Utility\Utils\DBUtils.cs:line 114 |   select t0.CardCode, t0.CardName, t0.LicTradNum as FederalTaxID,    t0.Balance, t0.OrdersBal, t0.GroupNum as PayTermsGrpCode, t3.PymntGroup,    t0.CreditLine as CreditLimit, t0.FatherCard, t0.SlpCode as SalesPersonCode,    t0.BillToDef, t0.ShipToDef,    t1.U_ISS_BpBrnCode as BpBrnCode, t1.U_ISS_BpBrnName as BpBrnName    from SBOORT_SC..ocrd t0   LEFT JOIN  SBOORT_SC..crd1 t1 on t0.CardCode = t1.CardCode and t0.ShipToDef = t1.Address and t1.AdresType = 'S'    where 1 = 1    and t0.CardType = 'C'    and t0.validFor = 'Y'  
17/06/2019 00:15:17 : The multi-part identifier "t3.PymntGroup" could not be bound.
Invalid column name 'U_ISS_BpBrnCode'.
Invalid column name 'U_ISS_BpBrnName'.   at B1Utility.Utils.ExceptionUtils.handleException(Exception ex, String sqlQuery) in d:\B1WorkSpace\Tools\b1.utility\B1Utility\Utils\ExceptionUtils.cs:line 35
   at B1Utility.Utils.DBUtils.queryResultList[T](String sql, Boolean isRecordSet) in d:\B1WorkSpace\Tools\b1.utility\B1Utility\Utils\DBUtils.cs:line 138
   at BackControl.ServiceDaoImpl.DocumentDaoImpl.searchBusinessPartnerForSO(BusinessPartnerCondition condition) in d:\B1WorkSpace\Services\b1.jws.websalesapi\WebSalesApi\BackControl\ServiceDaoImpl\DocumentDaoImpl.cs:line 32
17/06/2019 00:15:17 : The multi-part identifier "t3.PymntGroup" could not be bound.
Invalid column name 'U_ISS_BpBrnCode'.
Invalid column name 'U_ISS_BpBrnName'.   at B1Utility.Utils.ExceptionUtils.handleException(Exception ex) in d:\B1WorkSpace\Tools\b1.utility\B1Utility\Utils\ExceptionUtils.cs:line 22
   at BackControl.ServiceDaoImpl.DocumentDaoImpl.searchBusinessPartnerForSO(BusinessPartnerCondition condition) in d:\B1WorkSpace\Services\b1.jws.websalesapi\WebSalesApi\BackControl\ServiceDaoImpl\DocumentDaoImpl.cs:line 52
   at FrontControl.ServiceImpl.DocumentServiceImpl.searchBusinessPartnerForSO(BusinessPartnerCondition condition) in d:\B1WorkSpace\Services\b1.jws.websalesapi\WebSalesApi\FrontControl\ServiceImpl\DocumentServiceImpl.cs:line 33
17/06/2019 00:16:05 : Object reference not set to an instance of an object.   at B1Utility.POCO.TemplateSQL.convertToString[T](T value) in d:\B1WorkSpace\Tools\b1.utility\B1Utility\POCO\TemplateSQL.cs:line 175
   at B1Utility.POCO.TemplateSQL.generateSql() in d:\B1WorkSpace\Tools\b1.utility\B1Utility\POCO\TemplateSQL.cs:line 132
   at B1Utility.POCO.TemplateSQL.generateSqlWithLog() in d:\B1WorkSpace\Tools\b1.utility\B1Utility\POCO\TemplateSQL.cs:line 148
   at BackControl.Implement.QueryRegisterImpl.getQueryItemMasterForSO(ItemMasterCondition condition) in d:\B1WorkSpace\Services\b1.jws.websalesapi\WebSalesApi\BackControl\Implement\QueryRegisterImpl.cs:line 829
   at BackControl.ServiceDaoImpl.DocumentDaoImpl.searchItemMasterForSO(ItemMasterCondition condition) in d:\B1WorkSpace\Services\b1.jws.websalesapi\WebSalesApi\BackControl\ServiceDaoImpl\DocumentDaoImpl.cs:line 64
17/06/2019 00:16:05 : Object reference not set to an instance of an object.   at B1Utility.Utils.ExceptionUtils.handleException(Exception ex) in d:\B1WorkSpace\Tools\b1.utility\B1Utility\Utils\ExceptionUtils.cs:line 22
   at BackControl.ServiceDaoImpl.DocumentDaoImpl.searchItemMasterForSO(ItemMasterCondition condition) in d:\B1WorkSpace\Services\b1.jws.websalesapi\WebSalesApi\BackControl\ServiceDaoImpl\DocumentDaoImpl.cs:line 77
   at FrontControl.ServiceImpl.DocumentServiceImpl.searchItemMasterForSO(ItemMasterCondition condition) in d:\B1WorkSpace\Services\b1.jws.websalesapi\WebSalesApi\FrontControl\ServiceImpl\DocumentServiceImpl.cs:line 49
17/06/2019 00:17:04 : Object reference not set to an instance of an object.   at B1Utility.POCO.TemplateSQL.convertToString[T](T value) in d:\B1WorkSpace\Tools\b1.utility\B1Utility\POCO\TemplateSQL.cs:line 175
   at B1Utility.POCO.TemplateSQL.generateSql() in d:\B1WorkSpace\Tools\b1.utility\B1Utility\POCO\TemplateSQL.cs:line 132
   at B1Utility.POCO.TemplateSQL.generateSqlWithLog() in d:\B1WorkSpace\Tools\b1.utility\B1Utility\POCO\TemplateSQL.cs:line 148
   at BackControl.Implement.QueryRegisterImpl.getQueryItemBarCode(String company, String itemCode) in d:\B1WorkSpace\Services\b1.jws.websalesapi\WebSalesApi\BackControl\Implement\QueryRegisterImpl.cs:line 509
   at BackControl.ServiceDaoImpl.DocumentDaoImpl.searchItemMasterForSO(ItemMasterCondition condition) in d:\B1WorkSpace\Services\b1.jws.websalesapi\WebSalesApi\BackControl\ServiceDaoImpl\DocumentDaoImpl.cs:line 70
17/06/2019 00:17:06 : Object reference not set to an instance of an object.   at B1Utility.Utils.ExceptionUtils.handleException(Exception ex) in d:\B1WorkSpace\Tools\b1.utility\B1Utility\Utils\ExceptionUtils.cs:line 22
   at BackControl.ServiceDaoImpl.DocumentDaoImpl.searchItemMasterForSO(ItemMasterCondition condition) in d:\B1WorkSpace\Services\b1.jws.websalesapi\WebSalesApi\BackControl\ServiceDaoImpl\DocumentDaoImpl.cs:line 77
   at FrontControl.ServiceImpl.DocumentServiceImpl.searchItemMasterForSO(ItemMasterCondition condition) in d:\B1WorkSpace\Services\b1.jws.websalesapi\WebSalesApi\FrontControl\ServiceImpl\DocumentServiceImpl.cs:line 49
17/06/2019 00:17:57 : Object reference not set to an instance of an object.   at B1Utility.POCO.TemplateSQL.convertToString[T](T value) in d:\B1WorkSpace\Tools\b1.utility\B1Utility\POCO\TemplateSQL.cs:line 175
   at B1Utility.POCO.TemplateSQL.generateSql() in d:\B1WorkSpace\Tools\b1.utility\B1Utility\POCO\TemplateSQL.cs:line 132
   at B1Utility.POCO.TemplateSQL.generateSqlWithLog() in d:\B1WorkSpace\Tools\b1.utility\B1Utility\POCO\TemplateSQL.cs:line 148
   at BackControl.Implement.QueryRegisterImpl.getQueryItemBarCode(String company, String itemCode) in d:\B1WorkSpace\Services\b1.jws.websalesapi\WebSalesApi\BackControl\Implement\QueryRegisterImpl.cs:line 509
   at BackControl.ServiceDaoImpl.DocumentDaoImpl.searchItemMasterForSO(ItemMasterCondition condition) in d:\B1WorkSpace\Services\b1.jws.websalesapi\WebSalesApi\BackControl\ServiceDaoImpl\DocumentDaoImpl.cs:line 70
17/06/2019 00:17:57 : Object reference not set to an instance of an object.   at B1Utility.Utils.ExceptionUtils.handleException(Exception ex) in d:\B1WorkSpace\Tools\b1.utility\B1Utility\Utils\ExceptionUtils.cs:line 22
   at BackControl.ServiceDaoImpl.DocumentDaoImpl.searchItemMasterForSO(ItemMasterCondition condition) in d:\B1WorkSpace\Services\b1.jws.websalesapi\WebSalesApi\BackControl\ServiceDaoImpl\DocumentDaoImpl.cs:line 77
   at FrontControl.ServiceImpl.DocumentServiceImpl.searchItemMasterForSO(ItemMasterCondition condition) in d:\B1WorkSpace\Services\b1.jws.websalesapi\WebSalesApi\FrontControl\ServiceImpl\DocumentServiceImpl.cs:line 49
17/06/2019 00:24:21 : Invalid index   at SAPbobsCOM.IFields.Item(Object Index)
   at BackControl.ServiceDaoImpl.DocumentDaoImpl.getItemPrice(ItemPriceCondition condition) in d:\B1WorkSpace\Services\b1.jws.websalesapi\WebSalesApi\BackControl\ServiceDaoImpl\DocumentDaoImpl.cs:line 99
17/06/2019 00:24:21 : Invalid index   at B1Utility.Utils.ExceptionUtils.handleException(Exception ex) in d:\B1WorkSpace\Tools\b1.utility\B1Utility\Utils\ExceptionUtils.cs:line 22
   at BackControl.ServiceDaoImpl.DocumentDaoImpl.getItemPrice(ItemPriceCondition condition) in d:\B1WorkSpace\Services\b1.jws.websalesapi\WebSalesApi\BackControl\ServiceDaoImpl\DocumentDaoImpl.cs:line 106
   at FrontControl.ServiceImpl.DocumentServiceImpl.getItemPrice(ItemPriceCondition condition) in d:\B1WorkSpace\Services\b1.jws.websalesapi\WebSalesApi\FrontControl\ServiceImpl\DocumentServiceImpl.cs:line 65
