12/06/2019 07:39:50 : Incorrect syntax near the keyword 'and'.   at System.Data.SqlClient.SqlConnection.OnError(SqlException exception, Boolean breakConnection, Action`1 wrapCloseInAction)
   at System.Data.SqlClient.SqlInternalConnection.OnError(SqlException exception, Boolean breakConnection, Action`1 wrapCloseInAction)
   at System.Data.SqlClient.TdsParser.ThrowExceptionAndWarning(TdsParserStateObject stateObj, Boolean callerHasConnectionLock, Boolean asyncClose)
   at System.Data.SqlClient.TdsParser.TryRun(RunBehavior runBehavior, SqlCommand cmdHandler, SqlDataReader dataStream, BulkCopySimpleResultSet bulkCopyHandler, TdsParserStateObject stateObj, Boolean& dataReady)
   at System.Data.SqlClient.SqlDataReader.TryConsumeMetaData()
   at System.Data.SqlClient.SqlDataReader.get_MetaData()
   at System.Data.SqlClient.SqlCommand.FinishExecuteReader(SqlDataReader ds, RunBehavior runBehavior, String resetOptionsString, Boolean isInternal, Boolean forDescribeParameterEncryption, Boolean shouldCacheForAlwaysEncrypted)
   at System.Data.SqlClient.SqlCommand.RunExecuteReaderTds(CommandBehavior cmdBehavior, RunBehavior runBehavior, Boolean returnStream, Boolean async, Int32 timeout, Task& task, Boolean asyncWrite, Boolean inRetry, SqlDataReader ds, Boolean describeParameterEncryptionRequest)
   at System.Data.SqlClient.SqlCommand.RunExecuteReader(CommandBehavior cmdBehavior, RunBehavior runBehavior, Boolean returnStream, String method, TaskCompletionSource`1 completion, Int32 timeout, Task& task, Boolean& usedCache, Boolean asyncWrite, Boolean inRetry)
   at System.Data.SqlClient.SqlCommand.RunExecuteReader(CommandBehavior cmdBehavior, RunBehavior runBehavior, Boolean returnStream, String method)
   at System.Data.SqlClient.SqlCommand.ExecuteReader(CommandBehavior behavior, String method)
   at System.Data.SqlClient.SqlCommand.ExecuteDbDataReader(CommandBehavior behavior)
   at System.Data.Common.DbCommand.System.Data.IDbCommand.ExecuteReader(CommandBehavior behavior)
   at System.Data.Common.DbDataAdapter.FillInternal(DataSet dataset, DataTable[] datatables, Int32 startRecord, Int32 maxRecords, String srcTable, IDbCommand command, CommandBehavior behavior)
   at System.Data.Common.DbDataAdapter.Fill(DataTable[] dataTables, Int32 startRecord, Int32 maxRecords, IDbCommand command, CommandBehavior behavior)
   at System.Data.Common.DbDataAdapter.Fill(DataTable dataTable)
   at B1Utility.DataAccess.DBDataAccess.executeQuery(String sql) in d:\B1WorkSpace\Tools\b1.utility\B1Utility\DataAccess\DBDataAccess.cs:line 125
12/06/2019 07:39:50 : Incorrect syntax near the keyword 'and'.   at B1Utility.Utils.ExceptionUtils.handleException(Exception ex) in d:\B1WorkSpace\Tools\b1.utility\B1Utility\Utils\ExceptionUtils.cs:line 22
   at B1Utility.DataAccess.DBDataAccess.executeQuery(String sql) in d:\B1WorkSpace\Tools\b1.utility\B1Utility\DataAccess\DBDataAccess.cs:line 133
   at B1Utility.Utils.DBUtils.queryResultList[T](String sql, Boolean isRecordSet) in d:\B1WorkSpace\Tools\b1.utility\B1Utility\Utils\DBUtils.cs:line 114 |   select t0.AbsEntry, t4.WhsCode, min(t0.ItemCode) as ItemCode,    min(t0.SysNumber) as SysNumber, min(t0.DistNumber) as DistNumber,    min(t3.ItemName) as ItemName, min(t0.MnfSerial) as MnfSerial,    min(t0.LotNumber) as LotNumber, min(t0.ExpDate) as ExpDate,    case when min(t0.Status) = '0' then 'Released' end as Status, min(t5.Location) as Location,    min(t4.Quantity) as Quantity, min(t4.CommitQty) as CommitQty,    min(t4.CountQty) as CountQty, min(t8.CCDNum) as CCDNum,    min(t7.ItemCCDNum) as ItemCCDNum,    min(t0.MnfDate) as MnfDate, min(t0.InDate) as InDate    from SBOORT_SC..obtn t0   INNER JOIN  SBOORT_SC..oitm t1 on t0.ItemCode = t1.ItemCode   INNER JOIN  SBOORT_SC..itl1 t2 on t0.ItemCode = t2.ItemCode and t0.SysNumber = t2.SysNumber   INNER JOIN  SBOORT_SC..oitl t3 on t2.LogEntry = t3.LogEntry and t3.ManagedBy = '10000044'   LEFT JOIN  SBOORT_SC..obtq t4 on t0.ItemCode = t4.ItemCode and t0.SysNumber = t4.SysNumber and t3.LocCode = t4.WhsCode   LEFT JOIN  SBOORT_SC..obtw t5 on t0.ItemCode = t5.ItemCode and t0.SysNumber = t5.SysNumber and t3.LocCode = t5.WhsCode   LEFT JOIN  SBOORT_SC..ocrd t6 on t3.CardCode = t6.CardCode   LEFT JOIN  SBOORT_SC..tcn1 t7 on t0.TrackingNt = t7.AbsEntry and t0.TrackiNtLn = t7.LineNum   LEFT JOIN  SBOORT_SC..otcn t8 on t7.AbsEntry = t8.AbsEntry    where 1 = 1    and t1.InvntItem = 'Y'    and t1.ManBtchNum = 'Y'   GROUP BY  t0.AbsEntry, t4.WhsCode   ORDER BY  min(t0.ItemCode), min(t0.DistNumber), t4.WhsCode    and t0.ItemCode between N'1HP-211' and N'1HP-211'   GROUP BY  t0.TransId, t0.ApplyEntry, t0.ApplyLine, t0.ApplyType, t0.LocCode, t0.Instance, t0.LocType   ORDER BY  t0.TransId, min(t0.LogEntry)  
12/06/2019 07:39:50 : Incorrect syntax near the keyword 'and'.   at B1Utility.Utils.ExceptionUtils.handleException(Exception ex, String sqlQuery) in d:\B1WorkSpace\Tools\b1.utility\B1Utility\Utils\ExceptionUtils.cs:line 35
   at B1Utility.Utils.DBUtils.queryResultList[T](String sql, Boolean isRecordSet) in d:\B1WorkSpace\Tools\b1.utility\B1Utility\Utils\DBUtils.cs:line 138
   at BackControl.ServiceDaoImpl.ReportDaoImpl.getReportBatchNumberTransaction(BatchNumberTransactionReportCondition condition) in d:\B1WorkSpace\Services\b1.jws.websalesapi\WebSalesApi\BackControl\ServiceDaoImpl\ReportDaoImpl.cs:line 58
12/06/2019 07:39:50 : Incorrect syntax near the keyword 'and'.   at B1Utility.Utils.ExceptionUtils.handleException(Exception ex) in d:\B1WorkSpace\Tools\b1.utility\B1Utility\Utils\ExceptionUtils.cs:line 22
   at BackControl.ServiceDaoImpl.ReportDaoImpl.getReportBatchNumberTransaction(BatchNumberTransactionReportCondition condition) in d:\B1WorkSpace\Services\b1.jws.websalesapi\WebSalesApi\BackControl\ServiceDaoImpl\ReportDaoImpl.cs:line 62
   at FrontControl.ServiceImpl.ReportServiceImpl.getReportBatchNumberTransaction(BatchNumberTransactionReportCondition condition) in d:\B1WorkSpace\Services\b1.jws.websalesapi\WebSalesApi\FrontControl\ServiceImpl\ReportServiceImpl.cs:line 64
12/06/2019 07:40:36 : Value cannot be null.
Parameter name: key   at System.Collections.Generic.Dictionary`2.FindEntry(TKey key)
   at System.Collections.Generic.Dictionary`2.ContainsKey(TKey key)
   at B1Utility.DataAccess.ServiceDataAccess.getCompanyB1DataAccess(String company) in d:\B1WorkSpace\Tools\b1.utility\B1Utility\DataAccess\ServiceDataAccess.cs:line 173
   at BackControl.ServiceDaoImpl.MasterDaoImpl.createBusinessPartner(BusinessPartner bp) in d:\B1WorkSpace\Services\b1.jws.websalesapi\WebSalesApi\BackControl\ServiceDaoImpl\MasterDaoImpl.cs:line 167
   at FrontControl.ServiceImpl.MasterServiceImpl.createBusinessPartner(BusinessPartner bp) in d:\B1WorkSpace\Services\b1.jws.websalesapi\WebSalesApi\FrontControl\ServiceImpl\MasterServiceImpl.cs:line 141
12/06/2019 07:47:38 : Value cannot be null.
Parameter name: key   at System.Collections.Generic.Dictionary`2.FindEntry(TKey key)
   at System.Collections.Generic.Dictionary`2.ContainsKey(TKey key)
   at B1Utility.DataAccess.ServiceDataAccess.getCompanyB1DataAccess(String company) in d:\B1WorkSpace\Tools\b1.utility\B1Utility\DataAccess\ServiceDataAccess.cs:line 173
   at BackControl.ServiceDaoImpl.MasterDaoImpl.createBusinessPartner(BusinessPartner bp) in d:\B1WorkSpace\Services\b1.jws.websalesapi\WebSalesApi\BackControl\ServiceDaoImpl\MasterDaoImpl.cs:line 167
   at FrontControl.ServiceImpl.MasterServiceImpl.createBusinessPartner(BusinessPartner bp) in d:\B1WorkSpace\Services\b1.jws.websalesapi\WebSalesApi\FrontControl\ServiceImpl\MasterServiceImpl.cs:line 141
12/06/2019 07:49:07 : Code undefined  [OCRD.CardCode]   at BackControl.ServiceDaoImpl.MasterDaoImpl.createBusinessPartner(BusinessPartner bp) in d:\B1WorkSpace\Services\b1.jws.websalesapi\WebSalesApi\BackControl\ServiceDaoImpl\MasterDaoImpl.cs:line 221
12/06/2019 07:49:08 : Code undefined  [OCRD.CardCode]   at B1Utility.Utils.ExceptionUtils.handleException(Exception ex) in d:\B1WorkSpace\Tools\b1.utility\B1Utility\Utils\ExceptionUtils.cs:line 22
   at BackControl.ServiceDaoImpl.MasterDaoImpl.createBusinessPartner(BusinessPartner bp) in d:\B1WorkSpace\Services\b1.jws.websalesapi\WebSalesApi\BackControl\ServiceDaoImpl\MasterDaoImpl.cs:line 226
   at FrontControl.ServiceImpl.MasterServiceImpl.createBusinessPartner(BusinessPartner bp) in d:\B1WorkSpace\Services\b1.jws.websalesapi\WebSalesApi\FrontControl\ServiceImpl\MasterServiceImpl.cs:line 141
12/06/2019 10:30:22 : Address is empty  [OCRD.CardCode][line: 0]   at BackControl.ServiceDaoImpl.MasterDaoImpl.createBusinessPartner(BusinessPartner bp) in d:\B1WorkSpace\Services\b1.jws.websalesapi\WebSalesApi\BackControl\ServiceDaoImpl\MasterDaoImpl.cs:line 221
12/06/2019 10:30:22 : Address is empty  [OCRD.CardCode][line: 0]   at B1Utility.Utils.ExceptionUtils.handleException(Exception ex) in d:\B1WorkSpace\Tools\b1.utility\B1Utility\Utils\ExceptionUtils.cs:line 22
   at BackControl.ServiceDaoImpl.MasterDaoImpl.createBusinessPartner(BusinessPartner bp) in d:\B1WorkSpace\Services\b1.jws.websalesapi\WebSalesApi\BackControl\ServiceDaoImpl\MasterDaoImpl.cs:line 226
   at FrontControl.ServiceImpl.MasterServiceImpl.createBusinessPartner(BusinessPartner bp) in d:\B1WorkSpace\Services\b1.jws.websalesapi\WebSalesApi\FrontControl\ServiceImpl\MasterServiceImpl.cs:line 141
12/06/2019 10:52:35 : CServiceData::SetPropertyValueString failed; Value too long in property 'State' of 'BPAddress'   at SAPbobsCOM.IBPAddresses.set_State(String pVal)
12/06/2019 10:52:36 : CServiceData::SetPropertyValueString failed; Value too long in property 'State' of 'BPAddress'   at SAPbobsCOM.IBPAddresses.set_State(String pVal)
12/06/2019 10:53:14 : CServiceData::SetPropertyValueString failed; Value too long in property 'State' of 'BPAddress'   at SAPbobsCOM.IBPAddresses.set_State(String pVal)
12/06/2019 10:53:14 : CServiceData::SetPropertyValueString failed; Value too long in property 'State' of 'BPAddress'   at SAPbobsCOM.IBPAddresses.set_State(String pVal)
12/06/2019 10:56:43 : CServiceData::SetPropertyValueString failed; Value too long in property 'State' of 'BPAddress'   at SAPbobsCOM.IBPAddresses.set_State(String pVal)
12/06/2019 10:56:43 : CServiceData::SetPropertyValueString failed; Value too long in property 'State' of 'BPAddress'   at SAPbobsCOM.IBPAddresses.set_State(String pVal)
12/06/2019 10:57:53 : CServiceData::SetPropertyValueString failed; Value too long in property 'State' of 'BPAddress'   at SAPbobsCOM.IBPAddresses.set_State(String pVal)
12/06/2019 10:57:53 : CServiceData::SetPropertyValueString failed; Value too long in property 'State' of 'BPAddress'   at SAPbobsCOM.IBPAddresses.set_State(String pVal)
12/06/2019 11:00:20 : CServiceData::SetPropertyValueString failed; Value too long in property 'Title' of 'ContactEmployee'   at SAPbobsCOM.IContactEmployees.set_Title(String pbstrRsltVal)
12/06/2019 11:00:20 : CServiceData::SetPropertyValueString failed; Value too long in property 'Title' of 'ContactEmployee'   at SAPbobsCOM.IContactEmployees.set_Title(String pbstrRsltVal)
12/06/2019 11:01:21 : CServiceData::SetPropertyValueString failed; Value too long in property 'Title' of 'ContactEmployee'   at SAPbobsCOM.IContactEmployees.set_Title(String pbstrRsltVal)
12/06/2019 11:01:22 : CServiceData::SetPropertyValueString failed; Value too long in property 'Title' of 'ContactEmployee'   at SAPbobsCOM.IContactEmployees.set_Title(String pbstrRsltVal)
12/06/2019 11:02:35 :  [OCRD.State1] , 'Linked value RI does not exist'   at BackControl.ServiceDaoImpl.MasterDaoImpl.createBusinessPartner(BusinessPartner bp) in d:\B1WorkSpace\Services\b1.jws.websalesapi\WebSalesApi\BackControl\ServiceDaoImpl\MasterDaoImpl.cs:line 221
12/06/2019 11:02:35 :  [OCRD.State1] , 'Linked value RI does not exist'   at B1Utility.Utils.ExceptionUtils.handleException(Exception ex) in d:\B1WorkSpace\Tools\b1.utility\B1Utility\Utils\ExceptionUtils.cs:line 22
   at BackControl.ServiceDaoImpl.MasterDaoImpl.createBusinessPartner(BusinessPartner bp) in d:\B1WorkSpace\Services\b1.jws.websalesapi\WebSalesApi\BackControl\ServiceDaoImpl\MasterDaoImpl.cs:line 226
   at FrontControl.ServiceImpl.MasterServiceImpl.createBusinessPartner(BusinessPartner bp) in d:\B1WorkSpace\Services\b1.jws.websalesapi\WebSalesApi\FrontControl\ServiceImpl\MasterServiceImpl.cs:line 141
12/06/2019 11:06:23 :  [OCRD.State1] , 'Linked value AL does not exist'   at BackControl.ServiceDaoImpl.MasterDaoImpl.createBusinessPartner(BusinessPartner bp) in d:\B1WorkSpace\Services\b1.jws.websalesapi\WebSalesApi\BackControl\ServiceDaoImpl\MasterDaoImpl.cs:line 221
12/06/2019 11:06:23 :  [OCRD.State1] , 'Linked value AL does not exist'   at B1Utility.Utils.ExceptionUtils.handleException(Exception ex) in d:\B1WorkSpace\Tools\b1.utility\B1Utility\Utils\ExceptionUtils.cs:line 22
   at BackControl.ServiceDaoImpl.MasterDaoImpl.createBusinessPartner(BusinessPartner bp) in d:\B1WorkSpace\Services\b1.jws.websalesapi\WebSalesApi\BackControl\ServiceDaoImpl\MasterDaoImpl.cs:line 226
   at FrontControl.ServiceImpl.MasterServiceImpl.createBusinessPartner(BusinessPartner bp) in d:\B1WorkSpace\Services\b1.jws.websalesapi\WebSalesApi\FrontControl\ServiceImpl\MasterServiceImpl.cs:line 141
12/06/2019 11:20:39 : CServiceData::SetPropertyValueString failed; Value too long in property 'State' of 'BPAddress'   at SAPbobsCOM.IBPAddresses.set_State(String pVal)
12/06/2019 11:20:42 : CServiceData::SetPropertyValueString failed; Value too long in property 'State' of 'BPAddress'   at SAPbobsCOM.IBPAddresses.set_State(String pVal)
12/06/2019 11:21:31 : CServiceData::SetPropertyValueString failed; Value too long in property 'State' of 'BPAddress'   at SAPbobsCOM.IBPAddresses.set_State(String pVal)
12/06/2019 11:21:31 : CServiceData::SetPropertyValueString failed; Value too long in property 'State' of 'BPAddress'   at SAPbobsCOM.IBPAddresses.set_State(String pVal)
12/06/2019 13:10:39 : CServiceData::SetPropertyValueString failed; Value too long in property 'State' of 'BPAddress'   at SAPbobsCOM.IBPAddresses.set_State(String pVal)
12/06/2019 13:10:39 : CServiceData::SetPropertyValueString failed; Value too long in property 'State' of 'BPAddress'   at SAPbobsCOM.IBPAddresses.set_State(String pVal)
12/06/2019 13:11:05 : CServiceData::SetPropertyValueString failed; Value too long in property 'State' of 'BPAddress'   at SAPbobsCOM.IBPAddresses.set_State(String pVal)
12/06/2019 13:11:06 : CServiceData::SetPropertyValueString failed; Value too long in property 'State' of 'BPAddress'   at SAPbobsCOM.IBPAddresses.set_State(String pVal)
12/06/2019 13:12:21 : CServiceData::SetPropertyValueString failed; Value too long in property 'State' of 'BPAddress'   at SAPbobsCOM.IBPAddresses.set_State(String pVal)
12/06/2019 13:12:22 : CServiceData::SetPropertyValueString failed; Value too long in property 'State' of 'BPAddress'   at SAPbobsCOM.IBPAddresses.set_State(String pVal)
12/06/2019 13:13:48 : CServiceData::SetPropertyValueString failed; Value too long in property 'Title' of 'ContactEmployee'   at SAPbobsCOM.IContactEmployees.set_Title(String pbstrRsltVal)
12/06/2019 13:13:48 : CServiceData::SetPropertyValueString failed; Value too long in property 'Title' of 'ContactEmployee'   at SAPbobsCOM.IContactEmployees.set_Title(String pbstrRsltVal)
12/06/2019 13:14:08 : CServiceData::SetPropertyValueString failed; Value too long in property 'Title' of 'ContactEmployee'   at SAPbobsCOM.IContactEmployees.set_Title(String pbstrRsltVal)
12/06/2019 13:14:08 : CServiceData::SetPropertyValueString failed; Value too long in property 'Title' of 'ContactEmployee'   at SAPbobsCOM.IContactEmployees.set_Title(String pbstrRsltVal)
12/06/2019 13:15:16 : CServiceData::SetPropertyValueString failed; Value too long in property 'Title' of 'ContactEmployee'   at SAPbobsCOM.IContactEmployees.set_Title(String pbstrRsltVal)
12/06/2019 13:15:17 : CServiceData::SetPropertyValueString failed; Value too long in property 'Title' of 'ContactEmployee'   at SAPbobsCOM.IContactEmployees.set_Title(String pbstrRsltVal)
12/06/2019 13:16:08 : CServiceData::SetPropertyValueString failed; Value too long in property 'Title' of 'ContactEmployee'   at SAPbobsCOM.IContactEmployees.set_Title(String pbstrRsltVal)
12/06/2019 13:16:09 : CServiceData::SetPropertyValueString failed; Value too long in property 'Title' of 'ContactEmployee'   at SAPbobsCOM.IContactEmployees.set_Title(String pbstrRsltVal)
