{
  "Status": "ERROR",
  "ErrorMessage": "Exception has been thrown by the target of an invocation. :    at B1Utility.Utils.ExceptionUtils.handleException(Exception ex) in d:\\B1WorkSpace\\Tools\\b1.utility\\B1Utility\\Utils\\ExceptionUtils.cs:line 22\r\n   at FrontControl.ServiceImpl.MasterServiceImpl.updateBusinessPartner(BusinessPartner bp) in d:\\B1WorkSpace\\Services\\b1.jws.websalesapi\\WebSalesApi\\FrontControl\\ServiceImpl\\MasterServiceImpl.cs:line 157\r\n   at WebSalesApi.Models.ActionImpl.UpdateBusinessPartnerImpl.implement(Object obj) in d:\\B1WorkSpace\\Services\\b1.jws.websalesapi\\WebSalesApi\\WebSalesApi\\Models\\ActionImpl\\UpdateBusinessPartnerImpl.cs:line 31\r\n   at WebSalesApi.Models.ServiceBaseImpl.WebServiceBase.startService(IRequest obj, HttpRequestMessage request, Boolean skipAuthen) in d:\\B1WorkSpace\\Services\\b1.jws.websalesapi\\WebSalesApi\\WebSalesApi\\Models\\ServiceBaseImpl\\WebServiceBase.cs:line 45",
  "ResponseTime": 0
}
