{
  "Status": "ERROR",
  "ErrorMessage": "Invalid column name 'InvntItem'.\r\nInvalid column name 'SellItem'. :    at B1Utility.Utils.ExceptionUtils.handleException(Exception ex) in d:\\B1WorkSpace\\Tools\\b1.utility\\B1Utility\\Utils\\ExceptionUtils.cs:line 22\r\n   at FrontControl.ServiceImpl.MasterServiceImpl.searchItemMasterByItemCode(ItemMasterCondition condition) in d:\\B1WorkSpace\\Services\\b1.jws.websalesapi\\WebSalesApi\\FrontControl\\ServiceImpl\\MasterServiceImpl.cs:line 51\r\n   at WebSalesApi.Models.ActionImpl.SearchItemMasterByItemCodeImpl.implement(Object obj) in d:\\B1WorkSpace\\Services\\b1.jws.websalesapi\\WebSalesApi\\WebSalesApi\\Models\\ActionImpl\\SearchItemMasterByItemCodeImpl.cs:line 35\r\n   at WebSalesApi.Models.ServiceBaseImpl.WebServiceBase.startService(IRequest obj, HttpRequestMessage request, Boolean skipAuthen) in d:\\B1WorkSpace\\Services\\b1.jws.websalesapi\\WebSalesApi\\WebSalesApi\\Models\\ServiceBaseImpl\\WebServiceBase.cs:line 45",
  "ResponseTime": 0
}
