{
  "Status": "ERROR",
  "ErrorMessage": "Object reference not set to an instance of an object. :    at B1Utility.Utils.ExceptionUtils.handleException(Exception ex) in d:\\B1WorkSpace\\Tools\\b1.utility\\B1Utility\\Utils\\ExceptionUtils.cs:line 22\r\n   at FrontControl.ServiceImpl.DocumentServiceImpl.searchItemMasterForSO(ItemMasterCondition condition) in d:\\B1WorkSpace\\Services\\b1.jws.websalesapi\\WebSalesApi\\FrontControl\\ServiceImpl\\DocumentServiceImpl.cs:line 53\r\n   at WebSalesApi.Models.ActionImpl.SearchItemMasterForSOImpl.implement(Object obj) in d:\\B1WorkSpace\\Services\\b1.jws.websalesapi\\WebSalesApi\\WebSalesApi\\Models\\ActionImpl\\SearchItemMasterForSOImpl.cs:line 35\r\n   at WebSalesApi.Models.ServiceBaseImpl.WebServiceBase.startService(IRequest obj, HttpRequestMessage request, Boolean skipAuthen) in d:\\B1WorkSpace\\Services\\b1.jws.websalesapi\\WebSalesApi\\WebSalesApi\\Models\\ServiceBaseImpl\\WebServiceBase.cs:line 45",
  "ResponseTime": 0
}
